C:\riz\Java Projects\osmroute\src\main\java\route\Application.java
C:\riz\Java Projects\osmroute\src\main\java\Beans\Direction.java
C:\riz\Java Projects\osmroute\src\main\java\route\Singleton.java
C:\riz\Java Projects\osmroute\src\main\java\Beans\TravelTime.java
C:\riz\Java Projects\osmroute\src\main\java\Beans\Response.java
C:\riz\Java Projects\osmroute\src\main\java\RouteBO\PolylineEncoder.java
C:\riz\Java Projects\osmroute\src\main\java\RouteDAO\HibernateSession.java
C:\riz\Java Projects\osmroute\src\main\java\route\DirectionController.java
C:\riz\Java Projects\osmroute\src\main\java\RouteBO\Utils.java
C:\riz\Java Projects\osmroute\src\main\java\route\OSM.java
C:\riz\Java Projects\osmroute\src\main\java\Beans\Coordinate.java
C:\riz\Java Projects\osmroute\src\main\java\Beans\ParentBoxes.java
C:\riz\Java Projects\osmroute\src\main\java\Beans\Queries.java
C:\riz\Java Projects\osmroute\src\main\java\RouteBO\CalculateTravelTime.java
C:\riz\Java Projects\osmroute\src\main\java\RouteBO\PathUtils.java
C:\riz\Java Projects\osmroute\src\main\java\Beans\Route.java
C:\riz\Java Projects\osmroute\src\main\java\RouteDAO\TravelTimeDAO.java
C:\riz\Java Projects\osmroute\src\main\java\RouteBO\TravelTimeBO.java
